<?xml version="1.0" encoding="UTF-8"?>
<!-- Created with Inkscape (http://www.inkscape.org/) -->
<svg width="36.711mm" height="36.711mm" version="1.1" viewBox="0 0 36.711361 36.711361" xmlns="http://www.w3.org/2000/svg" xmlns:cc="http://creativecommons.org/ns#" xmlns:dc="http://purl.org/dc/elements/1.1/" xmlns:rdf="http://www.w3.org/1999/02/22-rdf-syntax-ns#">
 <metadata>
  <rdf:RDF>
   <cc:Work rdf:about="">
    <dc:format>image/svg+xml</dc:format>
    <dc:type rdf:resource="http://purl.org/dc/dcmitype/StillImage"/>
    <dc:title/>
   </cc:Work>
  </rdf:RDF>
 </metadata>
 <g transform="translate(-52.704 -60.174)">
  <circle cx="71.06" cy="78.53" r="18.356" fill="#ff0b55" style="paint-order:normal"/>
  <path d="m72.186 68.066c0.486 0 1.1963 0.10258 1.3082 0.18904 0.02601 0.0195 0.1062 0.0509 0.1777 0.068 0.05 0.0109 0.1257 0.0463 0.2016 0.0871a2.1665 1.4422 30.526 0 1 0.9119 0.39831 2.1665 1.4422 30.526 0 1 0.1887 0.13225c0.044-0.0217 0.076-0.0131 0.076 0.0282v0.0195a2.1665 1.4422 30.526 0 1 0.13 0.10905v-0.0356c-0.02201-0.0344-0.02201-0.0421 0.02199-0.0195 0.03 0.0195 0.046 0.0527 0.03 0.0746-0.02199 0.0219 0.039 0.0624 0.1191 0.09 0.078 0.0276 0.1432 0.07 0.1432 0.0947s0.046 0.0566 0.099 0.0711c0.056 0.0151 0.087 0.0493 0.069 0.0772-0.02199 0.0282 0 0.0511 0.035 0.0511 0.093 0 0.279 0.16888 0.2366 0.21572-0.02199 0.0217-0.02199 0.0254 0.02199 8e-3 0.054-0.0316 0.3395 0.24868 0.5719 0.56437 0.078 0.10536 0.1517 0.20205 0.1647 0.21528 0.02199 0.013 0.054 0.0776 0.091 0.14352 0.037 0.0657 0.095 0.16369 0.1302 0.21775 0.061 0.095 0.037 0.10667-0.689 0.34396-0.2298 0.075-0.5225 0.17365-0.8549 0.28747a2.1665 1.4422 30.526 0 1 -0.3013 0.10384c-0.8841 0.30523-1.997 0.69916-3.0882 1.0946-0.2893 0.10493-1.1394 0.40919-1.8894 0.6762-1.3881 0.49438-1.7588 0.62922-2.0565 0.74758-0.093 0.0366-0.8561 0.31202-1.6979 0.61194-0.8419 0.29994-1.6922 0.6101-1.8894 0.68929v7.1e-5c-0.4129 0.16585-0.5707 0.19339-0.4801 0.0843 0.032-0.0382 0.044-0.0921 0.02601-0.11968-0.02199-0.0282 0-0.0501 0.063-0.0501 0.089 0 0.1756-0.0616 0.5865-0.42178 0.2081-0.1819 0.4685-0.63537 0.7605-1.324 0.7386-1.741 1.5905-2.9006 2.9145-3.9676 1.3326-1.0741 2.5373-1.5569 3.8847-1.5569zm8.3738 6.7518c0.7545 4e-3 1.6876 0.0533 2.046 0.12401 0.4291 0.0845 0.4464 0.0926 0.3109 0.14308-0.1345 0.0505-0.1387 0.0555-0.039 0.0855 0.058 0.0173 0.1257 0.0891 0.1518 0.1587 0.058 0.16151 0.195 0.3391 0.1972 0.25658 0-0.0468 0.024-0.0493 0.097-8e-3 0.054 0.0286 0.084 0.0714 0.069 0.095-0.059 0.0937 0.1885 0.14699 0.6462 0.13984 0.3105-4e-3 0.4778-0.026 0.4778-0.06 0-0.0288 0.037-0.0151 0.082 0.029 0.041 0.0416 0.058 0.0648 0.043 0.10122a0.13951 0.10464 0 0 1 0 4e-3 0.13951 0.10464 0 0 1 -0.071 0.0881c-0.02201 0.0151-0.028 0.0301-0.046 0.0477-0.02201 0.0195-0.036 0.036-0.056 0.0511a0.19342 0.18707 0 0 1 -0.1735 0.11685l-0.02199 0.0195a0.14903 0.17122 54.974 0 1 -0.065 0.0744 0.14903 0.17122 54.974 0 1 0 7e-5v4e-3c-0.052 0.0575-0.1213 0.093-0.1582 0.0791-0.036-0.013-0.054-6e-3 -0.039 0.0173 0.03 0.0501-0.037 0.11014-0.1149 0.12445a0.12049 0.091952 0 0 1 -0.072 0.0507c0 0.0217-0.02201 0.0414-0.08 0.0746-0.063 0.0352-0.1497 0.0859-0.1952 0.11273-0.5253 0.32039-0.9932 0.57806-1.5718 0.86594-0.9049 0.45007-1.4365 0.67451-2.715 1.146-1.6102 0.59385-3.1523 0.82347-5.7731 0.85969-1.5174 0.0217-1.6828 0.0338-2.248 0.17453-1.1541 0.28725-2.1336 1.0782-2.596 2.0967-0.3163 0.69607-0.3471 1.7445-0.078 2.6739 0.1497 0.51934 0.6719 1.485 0.7596 1.4053 0.024-0.0217 0.02601-0.013 0 0.0173-0.032 0.0581 0.208 0.40827 0.465 0.67218 0.1452 0.1485 0.2606 0.21136 0.195 0.10558-0.02199-0.0282 0.02199-0.0232 0.069 0.0109 0.056 0.0344 0.1002 0.0767 0.1002 0.0939 0 0.0322 0.4465 0.47123 0.6935 0.68116 0.4188 0.35618 0.4313 0.36876 0.3347 0.3389l-0.095-0.0297 0.095 0.0776c0.052 0.0427 0.1388 0.10992 0.1908 0.1496 0.206 0.15457-0.069-0.0131-0.4749-0.28789-0.2348-0.15979-0.6654-0.44947-0.9566-0.64391-0.8459-0.56473-2.5515-1.7653-2.9749-2.0938-1.2661-0.98263-1.9311-2.1325-1.9311-3.3392 0-0.70785 0.2264-1.2524 0.6654-1.6001 0.3005-0.23798 1.4397-0.69024 2.3651-0.93885 1.5022-0.40366 2.8532-0.83437 4.1679-1.3286 0.7326-0.27538 2.3183-0.92287 2.3584-0.96292 0.02199-0.0173 0-0.0497-0.039-0.0731-0.1171-0.0726-0.034-0.0897 0.2146-0.0447 0.2778 0.0501 0.7893 0.24126 0.7893 0.29489 0 0.0195 0.02199 0.0366 0.05 0.0366 0.059 0 0.1258 0.0535 0.3793 0.29892 0.169 0.16433 0.2429 0.20272 0.3518 0.18385 0.02199-4e-3 0.02601 0.0151 0 0.0421-0.02201 0.0299 0.041 0.0509 0.1518 0.054 0.1626 4e-3 0.1691 8e-3 0.063 0.0431l-0.1193 0.0384 0.1149 4e-3c0.1843 8e-3 0.6676-0.12639 1.2252-0.34037 0.967-0.37103 2.0848-0.91407 2.1854-1.0618 0.02199-0.0266-0.069-0.15761-0.1952-0.29064-0.2495-0.26393-0.4244-0.65312-0.4461-0.99188l-0.02199-0.20379 0.3826-0.0382c0.1995-0.0195 0.5047-0.0278 0.8477-0.0262zm-17.392 0.77069c0.02601-2e-3 0.052 0.0131 0.069 0.0382 0.046 0.0735-0.1171 0.21094-0.193 0.16389-0.02601-0.0151-0.048-6e-3 -0.048 0.0241 0 0.0295-0.02199 0.0401-0.048 0.0241-0.02601-0.0151-0.048-8e-3 -0.048 0.0173 0 0.026-0.048 0.062-0.1084 0.0795-0.058 0.0173-0.193 0.0702-0.2989 0.11708-0.1062 0.0466-0.3098 0.13376-0.4545 0.19338-0.1452 0.0596-0.3542 0.14829-0.4658 0.19707-0.1106 0.0487-0.2125 0.0887-0.2262 0.0887-0.03 0-3.0737 1.2114-3.2854 1.3075-0.089 0.0401-0.3213 0.13637-0.5185 0.21442-0.1974 0.0778-0.4772 0.19598-0.622 0.26252-0.1453 0.0666-0.306 0.12249-0.3586 0.12423-0.056 1e-3 -0.2174-0.12055-0.3979-0.30368-0.2928-0.29755-0.2989-0.30863-0.1972-0.36303 0.1929-0.10321 0.7777-0.28541 0.9157-0.28541 0.1518 0 0.9463-0.22611 1.4252-0.40574 0.1714-0.0642 0.5204-0.17171 0.7765-0.23916 0.256-0.0674 0.6434-0.18362 0.8608-0.25846 1.4248-0.49001 3.0417-0.96651 3.0784-0.90711 0.02199 0.0225 0.046 0.0407 0.074 0.0407 0.02601 0 0.034-0.0195 0.02201-0.0445-0.02201-0.0245 0-0.0596 0.02601-0.0781 0-4e-3 0.02201-6e-3 0.024-8e-3zm21.468 0.0347c0.02201 0 0.048 0.0429 0.076 0.0956s0.041 0.0956 0.02601 0.0956c-0.02199 0-0.048-0.0431-0.076-0.0956-0.02801-0.0527-0.04101-0.0956-0.02601-0.0956zm-0.344 0.56667a0.19342 0.18707 0 0 1 0 7e-5 0.14903 0.17122 54.974 0 1 0 1e-3zm1.8356 1.0727c0.02201-1e-4 0.02201 0.0173 0.02201 0.0531 0 0.0915 0.076 0.10279 0.1149 0.0173 0.056-0.11989-0.02199 2.1079-0.087 2.6427-0.08 0.61864-0.1193 0.85194-0.1582 0.95659-0.02199 0.0394-0.02199 0.12552-0.02199 0.19142 0 0.0952 0 0.10493-0.039 0.0477-0.039-0.0577-0.05-0.0471-0.05 0.0531 0 0.0687-0.054 0.20422-0.1193 0.30107-0.065 0.0969-0.1192 0.19664-0.1192 0.22189 0 0.0252-0.02199 0.0457-0.048 0.0457s-0.048 0.0351-0.048 0.0781c0 0.0594 0.02199 0.0509 0.089-0.0358 0.05-0.0626 0.099-0.14635 0.1149-0.1858 0.02199-0.0475 0.028-0.0347 0.03 0.0372 0 0.06-0.028 0.12141-0.067 0.13659-0.039 0.0151-0.071 0.0572-0.071 0.0936 0 0.0392-0.041 0.0614-0.1022 0.0547-0.076-8e-3 -0.1496 0.0557-0.2858 0.25166-0.1002 0.14461-0.2698 0.35536-0.3757 0.4682-0.1062 0.11273-0.1929 0.22725-0.1929 0.25432 0 0.0666-0.326 0.37049-0.3604 0.33609-0.02199-0.0151-0.02199 0.0109 0 0.0572 0.02201 0.0529 0 0.12422-0.058 0.18991-0.05 0.0579-0.1539 0.19665-0.2279 0.30845-0.074 0.11165-0.167 0.20314-0.2038 0.20314-0.037 0-0.054 0.0217-0.039 0.0475 0.02199 0.026-0.024 0.10123-0.091 0.16693-0.065 0.0658-0.1821 0.21182-0.2606 0.32455-0.078 0.11273-0.2242 0.29079-0.3255 0.39572-0.1023 0.10493-0.2168 0.23886-0.2547 0.29763-0.039 0.0588-0.097 0.10687-0.1323 0.10687-0.034 0-0.097 0.0755-0.1409 0.16737-0.044 0.0922-0.097 0.16737-0.1192 0.16737-0.02199 0-0.039 0.0455-0.039 0.10081 0 0.0924-0.041 0.15154-0.3047 0.43574-0.074 0.0789-0.078 0.10404-0.024 0.13789 0.056 0.0352 0.056 0.0414 0 0.0421-0.044 0-0.056 0.0356-0.039 0.10102 0.02199 0.0553 0.02199 0.0876 0 0.0722-0.046-0.0462-0.1561 0.0714-0.1561 0.16672 0 0.0598-0.024 0.0791-0.074 0.06-0.046-0.0173-0.069-4e-3 -0.061 0.0334 0.02199 0.0763-0.65 0.48004-1.445 0.87461-1.4508 0.72003-2.4372 1.0623-3.3959 1.1784v5.8e-5c-0.1973 0.0241-0.7571 0.036-1.2436 0.0266-1.0786-0.0195-1.7506-0.13007-2.6995-0.44014-1.3449-0.43947-2.216-1.016-3.0498-2.0187-0.2103-0.25298-0.4013-0.50839-0.4244-0.56761-0.02199-0.0592-0.065-0.10753-0.091-0.10753-0.02601 0-0.05-0.0236-0.05-0.0527 0-0.029-0.03-0.12032-0.069-0.20314-0.2249-0.49547-0.3289-0.83214-0.4161-1.3465-0.074-0.43178 0.02199-1.2011 0.1952-1.6263 0.02199-0.0527 0.061-0.14937 0.087-0.21528 0.1604-0.40356 0.7063-0.86206 1.2868-1.0805 0.7161-0.26958 1.422-0.254 2.7719 0.0612l0.7604 0.17755 1.4828 2e-3c0.6219 1e-3 1.126 6e-3 1.3042 0.013a0.41854 0.22829 0 0 1 0.2916 -0.0549 0.41854 0.22829 0 0 1 0.046 2e-3c0-0.0151 0.078-0.0346 0.1756-0.0485 0.5959-0.0829 1.6115-0.33578 2.1465-0.53472 1.4354-0.53356 2.4165-0.9507 3.3778-1.4364 1.1774-0.59491 2.2288-1.2842 2.8346-1.8584 0.1258-0.11881 0.2814-0.2511 0.3469-0.29393 0.054-0.0358 0.084-0.0537 0.1002-0.054zm-20.053 0.088c0.098 6e-3 0.098 6e-3 0 0.029-0.052 0.0131-0.1171 0.0397-0.1431 0.0594-0.02601 0.0195-0.2104 0.0956-0.4066 0.16846-0.1972 0.073-0.4233 0.15934-0.5022 0.1923-0.8469 0.35176-2.6522 1.0353-3.9698 1.503-1.1255 0.39941-1.8147 0.67346-2.2375 0.88967-0.5788 0.29596-1.1908 0.54868-1.3287 0.54868-0.035 0-0.1106 0.0455-0.1713 0.10102-0.058 0.0555-0.1777 0.11794-0.266 0.13854-0.2471 0.0585-0.2638 0.0511-0.1236-0.0531 0.1583-0.11859 0.2443-0.40458 0.2038-0.67956-0.041-0.27043 0.069-0.36366 0.6229-0.53354 0.5895-0.1806 1.5805-0.49988 2.7562-0.88821 1.8314-0.60478 2.7938-0.88311 4.1315-1.1949 0.732-0.17062 1.3212-0.2865 1.428-0.2807zm-10.194 1.4403c0.02199 0 0.037 0.0173 0.074 0.0516 0.099 0.091 0.4149 0.7124 0.5797 1.146 0.02601 0.072 0.082 0.13074 0.1235 0.13074 0.041 0 0.074 0.0217 0.074 0.0477 0 0.063-0.1105 0.061-0.2564-6e-3 -0.078-0.0356-0.1279-0.10732-0.1474-0.21312-0.041-0.21801-0.2017-0.5761-0.3723-0.82403-0.082-0.11924-0.1279-0.23772-0.1127-0.28152 0.02199-0.0344 0.02199-0.0516 0.036-0.0516zm15.525 2.4847c-0.1366-2e-3 -0.3705 0.033-0.4574 0.0835-0.065 0.0382-0.044 0.0473 0.1084 0.0429 0.3027-8e-3 0.4544-0.0414 0.4544-0.0969 0-0.0195-0.044-0.0284-0.1044-0.0294zm-1.5453 0.54161-0.2038 0.18906c-0.1128 0.10404-0.2039 0.19532-0.2039 0.20335 0 0.0362 0.041 0 0.2177-0.18905zm14.292 0.59154c-0.02601 1e-3 -0.1083 0.0366-0.2146 0.0936-0.3824 0.20683-0.779 0.45422-0.7969 0.49682 0 0.0217-0.046 0.0377-0.08 0.0377-0.1044 0-0.5027 0.41821-0.5027 0.52722 0 0.0551 0.02201 0.0869 0.048 0.0707 0.02601-0.0151 0.048-8e-3 0.048 0.0173 0 0.0256-0.02601 0.0574-0.058 0.0709-0.032 0.0131-0.02199 0.0258 0.028 0.028 0.058 2e-3 0.08 0.0282 0.061 0.0755-0.02199 0.0394-0.024 0.0704-0.02199 0.069 0-1e-3 0.043-0.0195 0.082-0.0401 0.039-0.0195 0.1952-0.099 0.3471-0.17496 0.2461-0.12314 0.5851-0.35079 0.9505-0.63774 0.1387-0.1084 0.1952-0.28826 0.1279-0.40742-0.03-0.0527-0.024-0.0765 0.02199-0.077 0.048 0 0.048-8e-3 0-0.0425-0.037-0.023-0.05-0.0664-0.032-0.0964v-8e-3zm-14.399 4.0273s0.02199 0.0109 0.02199 0.033c0.02199 0.0332 0.048 0.0459 0.076 0.0284 0.03-0.0195 0.036-8e-3 0.02199 0.0245-0.041 0.0657-0.1256 0.0262-0.1192-0.0561v-0.0297zm0.3731 0.47512c-0.028 0-0.05 0.02169-0.05 0.0479 0 0.02619 0 0.0479 0.02199 0.0479 0 0 0.034-0.0217 0.05-0.0479 0.02199-0.02619 0-0.0479-0.02199-0.0479zm0.1973 0.28697c-0.02201 0 0.02199 0.0431 0.063 0.0958 0.048 0.0527 0.1085 0.0956 0.1344 0.0956 0.02601 0 0-0.0429-0.063-0.0956-0.061-0.0527-0.1214-0.0958-0.1344-0.0958zm0.3677 0.28698c-0.02601 0-0.035 0.02169-0.02199 0.0479 0.02199 0.02619 0.052 0.0479 0.078 0.0479 0.02601 0 0.035-0.0217 0.02199-0.0479-0.02199-0.02619-0.052-0.0479-0.078-0.0479zm9.7518 0.40194c0.037-0.0011-0.046 0.0559-0.2167 0.14505-0.1258 0.065-0.2379 0.11815-0.2511 0.11793-0.046 0 0.2081-0.16238 0.3432-0.22016 0.067-0.0286 0.1083-0.0418 0.1236-0.0427zm-0.6248 0.31755c0.02199 0.0011-0.037 0.0431-0.1301 0.0936-0.1886 0.10321-0.1908 0.10426-0.1908 0.0731 0-0.029 0.27-0.16932 0.3207-0.16672zm-8.0809 0.0011c0.05 0.0021 0.061 0.01299 0.024 0.028-0.032 0.0131-0.046 0.0473-0.028 0.0755 0.02199 0.0301 0 0.0372-0.024 0.0173-0.085-0.0516-0.067-0.12466 0.028-0.12033zm0.091 0.14113c0.032 6e-3 0.089 0.0397 0.1605 0.0982l0.1192 0.0976-0.1561-0.0757c-0.084-0.0416-0.156-0.0861-0.156-0.0986 0-0.0173 0.02199-0.02469 0.03-0.0217zm7.5898 0.0473c0.034 0 0.028 0.0195-0.02201 0.0471-0.091 0.0594-0.1084 0.0594-0.071 0 0.02201-0.02619 0.056-0.0475 0.087-0.0471zm-7.2665 0.16065c0.024-0.0021 0.091 0.0217 0.1648 0.0566 0.082 0.0412 0.1756 0.0596 0.2059 0.0408 0.035-0.0217 0.044-0.0131 0.02199 0.0217-0.02199 0.0304-0.02199 0.0553 0 0.0553 0.024 0 0.1582 0.0656 0.3018 0.14634 0.1431 0.0805 0.2059 0.13159 0.1387 0.11338-0.1668-0.0466-0.8753-0.40474-0.8498-0.43035v-0.0021zm6.86 0.0332c0.065 0.0021 0.063 0.0109-0.02199 0.0445-0.1279 0.0551-0.1301 0.0551-0.095 0 0.02199-0.02619 0.065-0.0462 0.1106-0.0445zm-0.3018 0.14157c0.02601 0 0.02199 0.0217-0.024 0.0462-0.039 0.02561-0.093 0.0464-0.1192 0.0464-0.02601 0-0.02199-0.0217 0.024-0.0464 0.039-0.02561 0.093-0.0462 0.1193-0.0462zm-0.2392 0.0956c0.02601 0 0.02199 0.0217-0.024 0.0464-0.039 0.02561-0.093 0.0463-0.1193 0.0463-0.02601 0-0.02199-0.0217 0.024-0.0463 0.039-0.02561 0.093-0.0464 0.1192-0.0464z" fill="#fff"/>
 </g>
</svg>
