<?xml version="1.0" encoding="UTF-8"?>
<!-- Created with Inkscape (http://www.inkscape.org/) -->
<svg width="36.711mm" height="36.711mm" version="1.1" viewBox="0 0 36.711361 36.711361" xmlns="http://www.w3.org/2000/svg" xmlns:cc="http://creativecommons.org/ns#" xmlns:dc="http://purl.org/dc/elements/1.1/" xmlns:rdf="http://www.w3.org/1999/02/22-rdf-syntax-ns#">
 <metadata>
  <rdf:RDF>
   <cc:Work rdf:about="">
    <dc:format>image/svg+xml</dc:format>
    <dc:type rdf:resource="http://purl.org/dc/dcmitype/StillImage"/>
    <dc:title/>
   </cc:Work>
  </rdf:RDF>
 </metadata>
 <g transform="translate(-62.531 -110.82)">
  <circle cx="80.887" cy="129.18" r="18.356" fill="#f7081a" style="paint-order:normal"/>
  <path d="m70.629 138.63c-0.5714-0.1407-0.9745-0.73248-1.2498-1.836-0.335-1.3424-0.4748-3.8953-0.3157-5.7603 0.2639-3.0927 0.8196-6.072 1.4808-7.9382 0.1972-0.55807 0.2389-0.64238 0.3861-0.78848 0.2506-0.24888 0.9029-0.69291 1.3036-0.88739 0.6547-0.31762 1.0046-0.41716 1.7619-0.50126l0.6739-0.0748 0.6501 0.27095c0.3578 0.14916 0.7677 0.32806 0.9115 0.39781 0.7576 0.36795 1.9453 0.45684 3.6552 0.27358 0.9039-0.0969 1.3995-0.18753 2.0824-0.38118 0.5898-0.16715 1.0252-0.37253 1.6506-0.77887 0.2891-0.18754 0.6193-0.39598 0.7342-0.46296 0.1149-0.067 0.267-0.16823 0.3384-0.22492 0.1236-0.0984 0.1626-0.10667 0.857-0.18059 0.8006-0.0852 1.0896-0.0726 1.7206 0.0757 0.6318 0.14807 1.3894 0.48762 1.6731 0.74958 0.5125 0.4733 1.4565 2.7082 2.5594 6.0612 0.7655 2.3268 1.0616 3.6226 1.2089 5.2893 0.1344 1.5253 0.061 2.5121-0.2596 3.4299-0.275 0.79039-0.6716 1.0885-1.5068 1.1328-1.0278 0.0547-2.1417-0.46062-3.671-1.6981-0.566-0.45799-0.904-0.69959-1.3019-0.93041-1.1996-0.6961-2.326-0.98631-3.7003-0.95334-0.806 0.0195-2.6014 0.22123-3.0836 0.34667-1.4483 0.37686-2.6805 1.0689-3.6866 2.0706-0.1258 0.1264-0.4499 0.4865-0.7181 0.80042-1.6498 1.9324-2.1158 2.2636-3.4559 2.4565-0.409 0.059-0.5863 0.0696-0.6984 0.0418zm6.8095-7.0847c0.022-0.013 0.028-0.1704 0.024-0.34866-0.022-0.66998 0.115-0.89753 0.5585-1.0188 0.1475-0.0401 0.3463-0.0815 0.4414-0.0917 0.1691-0.0195 0.1735-0.0228 0.2059-0.16823 0.039-0.18428-0.022-0.77885-0.074-0.88338-0.042-0.0662-0.093-0.0754-0.3788-0.0678-0.5672 0.0151-0.7165-0.0434-0.8839-0.34304-0.072-0.12834-0.1084-0.26864-0.1517-0.57575l-0.056-0.406-0.1256-0.0217c-0.2038-0.0346-0.8145 0.0668-0.8489 0.14048-0.022 0.0338-0.022 0.20184 0 0.37329 0.048 0.54596-0.074 0.91491-0.334 1.0269-0.069 0.0302-0.2831 0.0823-0.4739 0.11642-0.3315 0.059-0.348 0.0664-0.3738 0.16584-0.036 0.14071 0.052 0.86857 0.1149 0.93549 0.032 0.0362 0.1517 0.0487 0.3787 0.0412 0.1822-6e-3 0.3879 4e-3 0.4583 0.0195 0.2975 0.0746 0.4423 0.3223 0.5197 0.88791 0.022 0.16476 0.05 0.30643 0.058 0.31472 0.071 0.0652 0.8439-0.0151 0.9441-0.0978zm-1.2111-0.27172c-0.058-0.3467-0.1561-0.5408-0.3037-0.59871-0.058-0.0234-0.2412-0.037-0.4056-0.0306-0.3586 0.0151-0.3638 0.0286-0.1236 0.35025 0.2214 0.29513 0.6454 0.5975 0.8136 0.57988 0.061-6e-3 0.063-0.0293 0.022-0.30112zm1.7524-0.0642c0.095-0.0857 0.2229-0.22111 0.2836-0.30135 0.1323-0.17387 0.3007-0.49617 0.2948-0.56231-0.022-0.0774-0.6352 0.0531-0.7384 0.15349-0.1043 0.10122-0.1756 0.41252-0.1539 0.67609 0.022 0.25136 0.067 0.25641 0.3144 0.0342zm6.5827-0.70191c0.4479-0.22753 0.7853-0.69115 0.8744-1.2014 0.082-0.46598-0.074-1.0278-0.384-1.3936-0.1713-0.20292-0.5268-0.41393-0.7989-0.47541-0.8201-0.18558-1.5846 0.29172-1.8127 1.1318-0.087 0.32074-0.03 0.94239 0.1128 1.2454 0.1258 0.26369 0.357 0.53259 0.5749 0.66384 0.4069 0.24531 0.9869 0.25724 1.4351 0.0298zm-0.5697-0.43214c-0.022-0.0219 0-0.0688 0.022-0.10426 0.059-0.0774 0.128-0.0497 0.1388 0.0544 0.022 0.0819-0.1106 0.11902-0.1583 0.0501zm-1.0469-0.93803c-0.022-0.0228-0.022-0.0616 0-0.0857 0.043-0.057 0.1582-0.0236 0.1451 0.0421-0.022 0.0668-0.1127 0.0958-0.1495 0.0438zm1.8952-0.2406c0-0.0638 0.022-0.0817 0.074-0.0787 0.046 0 0.082 0.0302 0.084 0.0618 0 0.0318-0.03 0.0674-0.074 0.0787-0.061 0.0173-0.08 0-0.085-0.0616zm-1.0274-0.9036c-0.039-0.0542 0-0.11729 0.08-0.12553 0.046-6e-3 0.072 0.0195 0.076 0.0698 0.022 0.0819-0.1084 0.12336-0.1561 0.0555zm-8.1153 0.97022c0.1149-0.0487 0.1497-0.0911 0.2038-0.24339 0.076-0.21506 0.085-0.79456 0.022-0.83313-0.1322-0.0711-0.6684 0.53647-0.8165 0.92699-0.1022 0.26868-0.071 0.30311 0.2206 0.2513 0.1322-0.0236 0.3034-0.0692 0.3798-0.10196zm2.7484-0.30877c-0.022-0.23525-0.8087-0.93603-1.0266-0.91274-0.084 8e-3 -0.028 0.55496 0.08 0.75825 0.1193 0.22613 0.2842 0.28084 0.7304 0.24208 0.1907-0.0173 0.2213-0.0293 0.2168-0.0875zm9.3103-1.7293c0.3147-0.15566 0.5467-0.60369 0.5133-0.99292-0.05-0.58171-0.4791-0.97695-1.001-0.92107-0.2696 0.0286-0.4086 0.10425-0.5892 0.31978-0.2103 0.2504-0.2664 0.43876-0.235 0.782 0.022 0.19663 0.05 0.32762 0.097 0.40808 0.27961 0.4623 0.767 0.62464 1.2135 0.40413zm-7.242-0.41393c0.5004-0.14418 0.9112-0.56303 1.0952-1.117 0.087-0.25774 0.089-0.30017 0.054-0.69916-0.03-0.34822-0.054-0.46157-0.1344-0.62879-0.1974-0.41165-0.5745-0.75025-0.98-0.87749-0.2892-0.0908-0.8332-0.0322-1.0996 0.11859-0.3833 0.2168-0.6885 0.61593-0.8093 1.0583-0.052 0.19296-0.056 0.30084-0.026 0.65586 0.035 0.40909 0.041 0.43515 0.1909 0.70079 0.2731 0.49112 0.7481 0.81409 1.2325 0.8383 0.1191 6e-3 0.2237 0.0109 0.2336 0.013 0.022 0 0.1193-0.0269 0.2446-0.0628zm-0.6021-0.34402c-0.6036-0.11599-1.0103-0.7547-0.937-1.4716 0.036-0.35264 0.1084-0.5485 0.2859-0.76328 0.3197-0.38894 0.8508-0.5172 1.3294-0.32102 0.2713 0.11122 0.4588 0.2882 0.621 0.58632 0.082 0.15045 0.1043 0.2476 0.1301 0.53178 0.026 0.30497 0.022 0.3742-0.05 0.56439-0.2352 0.63295-0.793 0.98603-1.3795 0.87338zm-6.5083 0.83032c0.5498-0.18862 0.9784-0.703 1.0806-1.2966 0.056-0.33227-0.022-0.78537-0.1584-1.0685-0.13-0.24588-0.4515-0.56766-0.6887-0.68696-0.2185-0.10992-0.5986-0.17886-0.8423-0.15285-0.9572 0.10238-1.645 1.1114-1.3994 2.0524 0.2422 0.92765 1.1484 1.4477 2.0084 1.1525zm-0.4375-0.55555c-0.022-0.0318-0.022-0.0791 0-0.10449 0.046-0.0614 0.1539 0.0151 0.1344 0.0947-0.022 0.0765-0.1083 0.0824-0.1431 8e-3zm-1.0718-0.93232c-0.03-0.0633 0.05-0.16195 0.1061-0.13225 0.022 0.0109 0.042 0.0547 0.046 0.0958 0 0.0885-0.11489 0.11773-0.1518 0.0364zm1.9086-0.19144c-0.022-0.0219 0-0.066 0.022-0.0978 0.056-0.0735 0.1561-0.0269 0.1322 0.0622-0.022 0.0733-0.1083 0.0947-0.1473 0.0356zm-1.0313-0.97323c0-0.0934 0.078-0.14135 0.1366-0.0767 0.059 0.0628 0.028 0.13268-0.061 0.14243-0.044 4e-3 -0.071-0.0195-0.076-0.0657zm12.878 0.73976c0.6181-0.27367 0.7572-1.1771 0.2598-1.6859-0.2966-0.30327-0.7783-0.34331-1.1175-0.093-0.5296 0.39126-0.5715 1.1771-0.087 1.6239 0.2847 0.26218 0.5893 0.31216 0.9444 0.15501zm3.8563-0.46321c0.308-0.21442 0.4622-0.54545 0.4304-0.92448-0.026-0.31108-0.1022-0.49394-0.2793-0.67537-0.206-0.21094-0.4326-0.29575-0.7083-0.26609-0.2665 0.0286-0.4497 0.13007-0.6167 0.3406-0.3078 0.38823-0.3048 0.93508 0.022 1.3365 0.275 0.35464 0.8056 0.4404 1.167 0.18883zm-2.0015-1.8717c0.4058-0.3203 0.5252-0.93016 0.2672-1.3666-0.1084-0.18256-0.3442-0.38504-0.5169-0.44251-0.076-0.0249-0.2395-0.0347-0.3646-0.0217-0.5479 0.0588-0.903 0.57621-0.8082 1.1776 0.058 0.37567 0.2702 0.64328 0.6153 0.78067 0.2508 0.0998 0.5855 0.0466 0.8072-0.12791z" fill="#fff" stroke-width=".30601"/>
 </g>
</svg>
