<?xml version="1.0" encoding="UTF-8"?>
<!-- Created with Inkscape (http://www.inkscape.org/) -->
<svg width="71.173mm" height="17.166mm" version="1.1" viewBox="0 0 71.17292 17.166473" xmlns="http://www.w3.org/2000/svg" xmlns:cc="http://creativecommons.org/ns#" xmlns:dc="http://purl.org/dc/elements/1.1/" xmlns:rdf="http://www.w3.org/1999/02/22-rdf-syntax-ns#">
 <metadata>
  <rdf:RDF>
   <cc:Work rdf:about="">
    <dc:format>image/svg+xml</dc:format>
    <dc:type rdf:resource="http://purl.org/dc/dcmitype/StillImage"/>
    <dc:title/>
   </cc:Work>
  </rdf:RDF>
 </metadata>
 <g transform="translate(65.636 -149.77)">
  <g transform="matrix(1.9007 0 0 2.2891 -160.81 -487.52)" stroke-width=".47941">
   <text transform="scale(1.0041 .99589)" x="51.351799" y="264.6178" fill="#000000" font-family="sans-serif" font-size="2.5505px" letter-spacing="0px" stroke-width=".12684" word-spacing="0px" style="line-height:28.25" xml:space="preserve"><tspan x="51.351799" y="301.37619" fill="#000000" font-family="TESLA" font-size="3.4266px" stroke-width=".12684" style="font-feature-settings:normal;font-variant-caps:normal;font-variant-ligatures:normal;font-variant-numeric:normal;line-height:5.5"/></text>
  </g>
  <g transform="matrix(1.9007 0 0 2.2891 -163.64 -436.31)" fill="#fff" stroke-width=".12684">
   <g transform="scale(.89737 1.1144)" aria-label="GHOSTLY GAMES ">
    <path d="m60.432 231.23h-0.79022c-0.43462 0-0.79022 0.3556-0.79022 0.79022h0.79022v0.50871c-0.11853 0.0543-0.25188 0.084-0.39511 0.084-0.54328 0-0.98778-0.43956-0.98778-0.98778 0-0.5334 0.42474-0.96802 0.9532-0.98778h0.42968c0.42474 0 0.79022-0.3556 0.79022-0.79022h-1.2298c-0.12347 5e-3 -0.23707 0.0198-0.35066 0.0444-0.44944 0.10372-0.83467 0.37536-1.0816 0.74577-0.19262 0.28152-0.30127 0.6223-0.30127 0.98778s0.10866 0.70626 0.30127 0.98778c0.31609 0.47907 0.85937 0.79022 1.4767 0.79022 0.13829 0 0.2667-0.0148 0.39511-0.0444 0.30127-0.0691 0.56797-0.21237 0.79022-0.40993z" style="font-feature-settings:normal;font-variant-caps:normal;font-variant-ligatures:normal;font-variant-numeric:normal"/>
    <path d="m63.01 230.63v0.59267h-1.3829v-0.59267c0-0.43462-0.3556-0.79022-0.79022-0.79022v2.7658c0 0.43462 0.3556 0.79022 0.79022 0.79022v-1.3829h1.3829v1.3829c0.43462 0 0.79022-0.3556 0.79022-0.79022v-2.7658c-0.43462 0-0.79022 0.3556-0.79022 0.79022z" style="font-feature-settings:normal;font-variant-caps:normal;font-variant-ligatures:normal;font-variant-numeric:normal"/>
    <path d="m65.932 229.84c-0.98284 0-1.778 0.79516-1.778 1.778s0.79516 1.778 1.778 1.778c0.98284 0 1.778-0.79516 1.778-1.778s-0.79516-1.778-1.778-1.778zm0 2.7658c-0.54822 0-0.98778-0.43956-0.98778-0.98778 0-0.54328 0.43956-0.98778 0.98778-0.98778 0.54328 0 0.98778 0.4445 0.98778 0.98778 0 0.54822-0.4445 0.98778-0.98778 0.98778z" style="font-feature-settings:normal;font-variant-caps:normal;font-variant-ligatures:normal;font-variant-numeric:normal"/>
    <path d="m69.781 231.23h-0.69144c-0.16298 0-0.29633-0.13335-0.29633-0.29633 0-0.16299 0.13335-0.29634 0.29633-0.29634h0.69144c0.43462 0 0.79022-0.3556 0.79022-0.79022h-1.4817c-0.60254 0-1.0866 0.48895-1.0866 1.0866 0 0.60254 0.48401 1.0866 1.0866 1.0866h0.69144c0.16298 0 0.29633 0.13335 0.29633 0.29633 0 0.16299-0.13335 0.29634-0.29633 0.29634h-1.778c0 0.43462 0.3556 0.79022 0.79022 0.79022h0.98778c0.59761 0 1.0866-0.48401 1.0866-1.0866 0-0.5976-0.48895-1.0866-1.0866-1.0866z" style="font-feature-settings:normal;font-variant-caps:normal;font-variant-ligatures:normal;font-variant-numeric:normal"/>
    <path d="m71.478 229.84c-0.43462 0-0.79022 0.3556-0.79022 0.79022h1.1853v2.7658c0.43462 0 0.79022-0.3556 0.79022-0.79022v-1.9756h0.39511c0.43462 0 0.79022-0.3556 0.79022-0.79022z" style="font-feature-settings:normal;font-variant-caps:normal;font-variant-ligatures:normal;font-variant-numeric:normal"/>
    <path d="m74.92 232.61v-2.7658c-0.43462 0-0.79022 0.3556-0.79022 0.79022v2.7658h2.0546c0.43462 0 0.79022-0.3556 0.79022-0.79022z" style="font-feature-settings:normal;font-variant-caps:normal;font-variant-ligatures:normal;font-variant-numeric:normal"/>
    <path d="m77.131 229.84 1.0915 1.8867v0.87912c0 0.43462 0.35066 0.79022 0.79022 0.79022v-1.6743l1.0866-1.8817h-0.45438c-0.28152 0-0.52846 0.14323-0.66675 0.36548l-0.36054 0.6223h-0.0049l-0.36054-0.6223c-0.13829-0.22225-0.38523-0.36548-0.66181-0.36548z" style="font-feature-settings:normal;font-variant-caps:normal;font-variant-ligatures:normal;font-variant-numeric:normal"/>
    <path d="m85.262 231.23h-0.79022c-0.43462 0-0.79022 0.3556-0.79022 0.79022h0.79022v0.50871c-0.11853 0.0543-0.25188 0.084-0.39511 0.084-0.54328 0-0.98778-0.43956-0.98778-0.98778 0-0.5334 0.42474-0.96802 0.95321-0.98778h0.42968c0.42474 0 0.79022-0.3556 0.79022-0.79022h-1.2298c-0.12347 5e-3 -0.23707 0.0198-0.35066 0.0444-0.44944 0.10372-0.83467 0.37536-1.0816 0.74577-0.19262 0.28152-0.30127 0.6223-0.30127 0.98778s0.10866 0.70626 0.30127 0.98778c0.31609 0.47907 0.85937 0.79022 1.4767 0.79022 0.13829 0 0.2667-0.0148 0.39511-0.0444 0.30127-0.0691 0.56797-0.21237 0.79022-0.40993z" style="font-feature-settings:normal;font-variant-caps:normal;font-variant-ligatures:normal;font-variant-numeric:normal"/>
    <path d="m87.321 229.84-1.778 3.556h1.1755c0.43462 0 0.79022-0.3556 0.79022-0.79022h-0.66675l0.47907-0.99766 0.72108 1.4471c0.10866 0.20249 0.38029 0.34078 0.65193 0.34078h0.40499z" style="font-feature-settings:normal;font-variant-caps:normal;font-variant-ligatures:normal;font-variant-numeric:normal"/>
    <path d="m92.063 230.14-1.1656 1.4076-1.1705-1.4175c-0.14817-0.17286-0.36548-0.28152-0.60748-0.28152v2.7658c0 0.43462 0.3556 0.79022 0.79022 0.79022v-1.8768l0.98778 1.2298 0.98778-1.2298v1.8768c0.43462 0 0.79022-0.3556 0.79022-0.79022v-2.7658c-0.24694 0-0.4692 0.11359-0.61242 0.29139z" style="font-feature-settings:normal;font-variant-caps:normal;font-variant-ligatures:normal;font-variant-numeric:normal"/>
    <path d="m94.803 232.61c-0.14323 0-0.27658-0.0296-0.39511-0.084-0.22719-0.0988-0.40993-0.28152-0.51364-0.50871h0.60748c0.43462 0 0.79022-0.3556 0.79022-0.79022h-1.3977c0.1531-0.35066 0.50377-0.59267 0.90876-0.59267h0.41981c0.4198-0.0148 0.76059-0.36054 0.76059-0.79022h-1.1804c-0.13829 0-0.27164 0.0148-0.40005 0.0444-0.44944 0.10372-0.82973 0.37536-1.0816 0.74577-0.18768 0.28152-0.29633 0.6223-0.29633 0.98778s0.10866 0.70626 0.29633 0.98778c0.32103 0.47907 0.8643 0.79022 1.4817 0.79022h0.39017c0.43462 0 0.79022-0.3556 0.79022-0.79022z" style="font-feature-settings:normal;font-variant-caps:normal;font-variant-ligatures:normal;font-variant-numeric:normal"/>
    <path d="m98.102 231.23h-0.69144c-0.16298 0-0.29633-0.13335-0.29633-0.29633 0-0.16299 0.13335-0.29634 0.29633-0.29634h0.69144c0.43462 0 0.79022-0.3556 0.79022-0.79022h-1.4817c-0.60254 0-1.0866 0.48895-1.0866 1.0866 0 0.60254 0.48401 1.0866 1.0866 1.0866h0.69144c0.16298 0 0.29633 0.13335 0.29633 0.29633 0 0.16299-0.13335 0.29634-0.29633 0.29634h-1.778c0 0.43462 0.3556 0.79022 0.79022 0.79022h0.98778c0.5976 0 1.0866-0.48401 1.0866-1.0866 0-0.5976-0.48895-1.0866-1.0866-1.0866z" style="font-feature-settings:normal;font-variant-caps:normal;font-variant-ligatures:normal;font-variant-numeric:normal"/>
   </g>
   <g transform="scale(1.0041 .99589)" aria-label="ENTERTAINMENT">
    <path d="m51.78 264.62q-0.1807 0-0.30451-0.12382-0.12381-0.12716-0.12381-0.30451h2.57q0 0.1807-0.12716 0.30451-0.12716 0.12382-0.30117 0.12382zm0-0.85666q-0.1807 0-0.30451-0.12381-0.12381-0.12716-0.12381-0.30451h2.57q0 0.1807-0.12716 0.30451t-0.30117 0.12381zm0-0.85665q-0.1807 0-0.30451-0.12382-0.12381-0.12716-0.12381-0.30451h2.57q0 0.1807-0.12716 0.30451-0.12716 0.12382-0.30117 0.12382z" style="font-feature-settings:normal;font-variant-caps:normal;font-variant-ligatures:normal;font-variant-numeric:normal"/>
    <path d="m54.778 264.62v-1.7133l-0.42833-0.42833h0.64249l1.4991 1.4992v-1.4992h0.42833v2.1416h-0.42833l-1.285-1.285v1.285z" style="font-feature-settings:normal;font-variant-caps:normal;font-variant-ligatures:normal;font-variant-numeric:normal"/>
    <path d="m58.419 264.62v-1.7133h-0.64249q-0.1807 0-0.30451-0.12382-0.12381-0.12716-0.12381-0.30451h2.57q0 0.1807-0.12716 0.30451-0.12716 0.12382-0.30117 0.12382h-0.64249v1.7133z" style="font-feature-settings:normal;font-variant-caps:normal;font-variant-ligatures:normal;font-variant-numeric:normal"/>
    <path d="m60.775 264.62q-0.1807 0-0.30451-0.12382-0.12381-0.12716-0.12381-0.30451h2.57q0 0.1807-0.12716 0.30451-0.12716 0.12382-0.30117 0.12382zm0-0.85666q-0.1807 0-0.30451-0.12381-0.12381-0.12716-0.12381-0.30451h2.57q0 0.1807-0.12716 0.30451t-0.30117 0.12381zm0-0.85665q-0.1807 0-0.30451-0.12382-0.12381-0.12716-0.12381-0.30451h2.57q0 0.1807-0.12716 0.30451-0.12716 0.12382-0.30117 0.12382z" style="font-feature-settings:normal;font-variant-caps:normal;font-variant-ligatures:normal;font-variant-numeric:normal"/>
    <path d="m63.345 264.62v-1.285h1.9275q0.087 0 0.15058-0.0602 0.06358-0.0636 0.06358-0.15393v-0.21416h-1.7133q-0.1807 0-0.30451-0.12382-0.12381-0.12716-0.12381-0.30451h2.57v0.85666q0 0.1807-0.12716 0.30451t-0.30117 0.12381h-0.42833l0.85666 0.85666h-0.64249l-0.85666-0.85666h-0.64249v0.85666z" style="font-feature-settings:normal;font-variant-caps:normal;font-variant-ligatures:normal;font-variant-numeric:normal"/>
    <path d="m67.414 264.62v-1.7133h-0.64249q-0.1807 0-0.30451-0.12382-0.12381-0.12716-0.12381-0.30451h2.57q0 0.1807-0.12716 0.30451-0.12716 0.12382-0.30117 0.12382h-0.64249v1.7133z" style="font-feature-settings:normal;font-variant-caps:normal;font-variant-ligatures:normal;font-variant-numeric:normal"/>
    <path d="m69.342 264.62v-1.285h2.57v1.285h-0.42833v-0.85666h-1.7133v0.85666zm0.42833-1.7133q-0.1807 0-0.30451-0.12382-0.12381-0.12716-0.12381-0.30451h2.57q0 0.1807-0.12716 0.30451-0.12716 0.12382-0.30117 0.12382z" style="font-feature-settings:normal;font-variant-caps:normal;font-variant-ligatures:normal;font-variant-numeric:normal"/>
    <path d="m72.34 264.62v-2.1416h0.42833v2.1416z" style="font-feature-settings:normal;font-variant-caps:normal;font-variant-ligatures:normal;font-variant-numeric:normal"/>
    <path d="m73.625 264.62v-1.7133l-0.42833-0.42833h0.64249l1.4991 1.4992v-1.4992h0.42833v2.1416h-0.42833l-1.285-1.285v1.285z" style="font-feature-settings:normal;font-variant-caps:normal;font-variant-ligatures:normal;font-variant-numeric:normal"/>
    <path d="m76.623 264.62v-1.7133l-0.42833-0.42833h0.64249l1.0708 1.0708 1.0708-1.0708h0.64249l-0.42833 0.42833v1.7133h-0.42833v-1.285l-0.64249 0.64249v0.64249h-0.42833v-0.64249l-0.64249-0.64249v1.285z" style="font-feature-settings:normal;font-variant-caps:normal;font-variant-ligatures:normal;font-variant-numeric:normal"/>
    <path d="m80.478 264.62q-0.1807 0-0.30451-0.12382-0.12381-0.12716-0.12381-0.30451h2.57q0 0.1807-0.12716 0.30451-0.12716 0.12382-0.30117 0.12382zm0-0.85666q-0.1807 0-0.30451-0.12381-0.12381-0.12716-0.12381-0.30451h2.57q0 0.1807-0.12716 0.30451t-0.30117 0.12381zm0-0.85665q-0.1807 0-0.30451-0.12382-0.12381-0.12716-0.12381-0.30451h2.57q0 0.1807-0.12716 0.30451-0.12716 0.12382-0.30117 0.12382z" style="font-feature-settings:normal;font-variant-caps:normal;font-variant-ligatures:normal;font-variant-numeric:normal"/>
    <path d="m83.476 264.62v-1.7133l-0.42833-0.42833h0.64249l1.4991 1.4992v-1.4992h0.42833v2.1416h-0.42833l-1.285-1.285v1.285z" style="font-feature-settings:normal;font-variant-caps:normal;font-variant-ligatures:normal;font-variant-numeric:normal"/>
    <path d="m87.117 264.62v-1.7133h-0.64249q-0.1807 0-0.30451-0.12382-0.12381-0.12716-0.12381-0.30451h2.57q0 0.1807-0.12716 0.30451-0.12716 0.12382-0.30117 0.12382h-0.64249v1.7133z" style="font-feature-settings:normal;font-variant-caps:normal;font-variant-ligatures:normal;font-variant-numeric:normal"/>
   </g>
  </g>
  <g transform="matrix(1.9007 0 0 2.2891 -121.52 -436.54)" fill="#ff0b55" stroke-width=".47941">
   <g transform="scale(.89737 1.1144)" fill="#ff0b55" stroke-width=".12684" aria-label="GAMES ">
    <path d="m60.432 231.23h-0.79022c-0.43462 0-0.79022 0.3556-0.79022 0.79022h0.79022v0.50871c-0.11853 0.0543-0.25188 0.084-0.39511 0.084-0.54328 0-0.98778-0.43956-0.98778-0.98778 0-0.5334 0.42474-0.96802 0.9532-0.98778h0.42968c0.42474 0 0.79022-0.3556 0.79022-0.79022h-1.2298c-0.12347 5e-3 -0.23707 0.0198-0.35066 0.0444-0.44944 0.10372-0.83467 0.37536-1.0816 0.74577-0.19262 0.28152-0.30127 0.6223-0.30127 0.98778s0.10866 0.70626 0.30127 0.98778c0.31609 0.47907 0.85937 0.79022 1.4767 0.79022 0.13829 0 0.2667-0.0148 0.39511-0.0444 0.30127-0.0691 0.56797-0.21237 0.79022-0.40993z" style="font-feature-settings:normal;font-variant-caps:normal;font-variant-ligatures:normal;font-variant-numeric:normal"/>
    <path d="m62.491 229.84-1.778 3.556h1.1755c0.43462 0 0.79022-0.3556 0.79022-0.79022h-0.66675l0.47907-0.99766 0.72108 1.4471c0.10866 0.20249 0.38029 0.34078 0.65193 0.34078h0.40499z" style="font-feature-settings:normal;font-variant-caps:normal;font-variant-ligatures:normal;font-variant-numeric:normal"/>
    <path d="m67.234 230.14-1.1656 1.4076-1.1705-1.4175c-0.14817-0.17286-0.36548-0.28152-0.60748-0.28152v2.7658c0 0.43462 0.3556 0.79022 0.79022 0.79022v-1.8768l0.98778 1.2298 0.98778-1.2298v1.8768c0.43462 0 0.79022-0.3556 0.79022-0.79022v-2.7658c-0.24694 0-0.46919 0.11359-0.61242 0.29139z" style="font-feature-settings:normal;font-variant-caps:normal;font-variant-ligatures:normal;font-variant-numeric:normal"/>
    <path d="m69.974 232.61c-0.14323 0-0.27658-0.0296-0.39511-0.084-0.22719-0.0988-0.40993-0.28152-0.51364-0.50871h0.60748c0.43462 0 0.79022-0.3556 0.79022-0.79022h-1.3977c0.15311-0.35066 0.50377-0.59267 0.90876-0.59267h0.41981c0.41981-0.0148 0.76059-0.36054 0.76059-0.79022h-1.1804c-0.13829 0-0.27164 0.0148-0.40005 0.0444-0.44944 0.10372-0.82973 0.37536-1.0816 0.74577-0.18768 0.28152-0.29633 0.6223-0.29633 0.98778s0.10866 0.70626 0.29633 0.98778c0.32103 0.47907 0.86431 0.79022 1.4817 0.79022h0.39017c0.43462 0 0.79022-0.3556 0.79022-0.79022z" style="font-feature-settings:normal;font-variant-caps:normal;font-variant-ligatures:normal;font-variant-numeric:normal"/>
    <path d="m73.273 231.23h-0.69144c-0.16298 0-0.29633-0.13335-0.29633-0.29633 0-0.16299 0.13335-0.29634 0.29633-0.29634h0.69144c0.43462 0 0.79022-0.3556 0.79022-0.79022h-1.4817c-0.60254 0-1.0866 0.48895-1.0866 1.0866 0 0.60254 0.48401 1.0866 1.0866 1.0866h0.69144c0.16298 0 0.29633 0.13335 0.29633 0.29633 0 0.16299-0.13335 0.29634-0.29633 0.29634h-1.778c0 0.43462 0.3556 0.79022 0.79022 0.79022h0.98778c0.59761 0 1.0866-0.48401 1.0866-1.0866 0-0.5976-0.48895-1.0866-1.0866-1.0866z" style="font-feature-settings:normal;font-variant-caps:normal;font-variant-ligatures:normal;font-variant-numeric:normal"/>
   </g>
  </g>
 </g>
</svg>
